Premiers pas avec R
…
On peut également combiner plusieurs facteurs de ventilation :

# Calcul du prix moyen, median et de l'écart-typedu prix des diamants en fonction de leur clarté et de leur découpe

diamonds %>% group_by(clarity, cut) %>%   # pour une combinaison des facteurs
  summarise(Moyenne = mean(price),
            Mediane = median(price),
            "Ecart-type" = sd(price)) 

# A tibble: 40 × 5
# Groups:   clarity [8]
   clarity cut       Moyenne Mediane `Ecart-type`
   <ord>   <ord>       <dbl>   <dbl>        <dbl>
 1 I1      Fair        3704.   2397         3099.
 2 I1      Good        3597.   3118.        2285.
 3 I1      Very Good   4078.   3283         2720.
 4 I1      Premium     3947.   3261         2827.
 5 I1      Ideal       4336.   3674.        2671.
 6 SI2     Fair        5174.   3681         3928.
 7 SI2     Good        4580.   3770         3901.
 8 SI2     Very Good   4989.   4042         4126.
 9 SI2     Premium     5546.   4291         4488.
10 SI2     Ideal       4756.   4060.        4252.
# ℹ 30 more rows
…
Calculer la valeur centrée réduite par groupe de chaque diamants

# Calcul du prix moyen, median et de l'écart-type du prix des diamants en fonction de leur clarté et de leur découpe

diamonds %>% group_by(cut) %>%   
  mutate(Moyenne = mean(price),               # On utilise la fonction mutate plutôt que summarise
         "Ecart-type" = sd(price)) %>%  
  ungroup() %>% 
  mutate(prix_centre = price - Moyenne,
         prix_centre_reduit = prix_centre / `Ecart-type`) %>%  # on rétuilise le résultat précédent
  select(cut,price,Moyenne,`Ecart-type`, prix_centre,prix_centre_reduit) %>% 
  arrange(cut)

# A tibble: 53,940 × 6
   cut   price Moyenne `Ecart-type` prix_centre prix_centre_reduit
   <ord> <int>   <dbl>        <dbl>       <dbl>              <dbl>
 1 Fair    337   4359.        3560.      -4022.             -1.13 
 2 Fair   2757   4359.        3560.      -1602.             -0.450
 3 Fair   2759   4359.        3560.      -1600.             -0.449
 4 Fair   2762   4359.        3560.      -1597.             -0.448
 5 Fair   2762   4359.        3560.      -1597.             -0.448
 6 Fair   2763   4359.        3560.      -1596.             -0.448
 7 Fair   2763   4359.        3560.      -1596.             -0.448
 8 Fair   2777   4359.        3560.      -1582.             -0.444
 9 Fair   2782   4359.        3560.      -1577.             -0.443
10 Fair   2788   4359.        3560.      -1571.             -0.441
# ℹ 53,930 more rows
…
